%YAML 1.1
%TAG !u! tag:unity3d.com,2011:
--- !u!1045 &1
EditorBuildSettings:
  m_ObjectHideFlags: 0
  serializedVersion: 2
  m_Scenes:
  - enabled: 1
    path: Assets/Scenes/Loading.unity
    guid: e52753cf4178e044db724895d471db39
  - enabled: 1
    path: Assets/Scenes/Onboarding.unity
    guid: cf3bc2eabf347874cab47da4687be154
  - enabled: 1
    path: Assets/Scenes/MainMenu.unity
    guid: 2cda990e2423bbf4892e6590ba056729
  m_configObjects: {}
